title;date;price;city;zipcode;url;img_path
ASUS DUAL RTX2080S O8G EVO V2 OC Edition;14.3.2021;850;Bratislava;85104;https://pc.bazos.sk/inzerat/122488965/asus-dual-rtx2080-super-o8g-evo.php;ads/images/img_1t_965_122488965.jpg
Predam MSI RTX 2070 SUPER GAMING;14.3.2021;780;Bardejov;8641;https://pc.bazos.sk/inzerat/122570748/predam-msi-rtx-2070-super-gaming.php;ads/images/img_1t_748_122570748.jpg
ZOTAC GeForce GTX 1070 Mini;14.3.2021;350;Bardejov;8641;https://pc.bazos.sk/inzerat/122570523/zotac-geforce-gtx-1070-mini.php;ads/images/img_1t_523_122570523.jpg
MSI RTX 2070 Super Ventus OC;14.3.2021;899;Bardejov;8641;https://pc.bazos.sk/inzerat/122570499/msi-rtx-2070-super-ventus-oc.php;ads/images/img_1t_499_122570499.jpg
AMD VEGA 64 8GB HBM2 Liquid cooling Limited edition ;14.3.2021;600;Bardejov;8641;https://pc.bazos.sk/inzerat/122570475/amd-vega-64-8gb-hbm2-liquid-cooling-limited-edition.php;ads/images/img_1t_475_122570475.jpg
Kúpim grafickú kartu gtx 1060 / gtx 1070;14.3.2021;Ponúknite;Bardejov;8641;https://pc.bazos.sk/inzerat/122569192/kupim-graficku-kartu-gtx-1060-gtx-1070.php;
GTX 1660 Super;14.3.2021;V texte;Bardejov;8641;https://pc.bazos.sk/inzerat/122568947/gtx-1660-super.php;ads/images/img_1t_947_122568947.jpg
GIGABYTE GeForce GTX 1650 D6 WINDFORCE OC 4G;14.3.2021;120;Bardejov;8641;https://pc.bazos.sk/inzerat/122568794/gigabyte-geforce-gtx-1650-d6-windforce-oc-4g.php;ads/images/img_1t_794_122568794.jpg
ZOTAC GeForce GTX560 Ti 1GB DDR5 SE OC V2;14.3.2021;Ponúknite;Bardejov;8641;https://pc.bazos.sk/inzerat/122568668/zotac-geforce-gtx560-ti-1gb-ddr5-se-oc-v2.php;ads/images/img_1t_668_122568668.jpg
Predam SAPPHIRE Pulse RX580 4GB - OC verzia;14.3.2021;190;Bardejov;8641;https://pc.bazos.sk/inzerat/122568340/predam-sapphire-pulse-rx580-4gb-oc-verzia.php;ads/images/img_1t_340_122568340.jpg
Rtx 3060 12gb gigabyte geforce;14.3.2021;750;Bardejov;8641;https://pc.bazos.sk/inzerat/122568021/rtx-3060-12gb-gigabyte-geforce.php;ads/images/img_1t_021_122568021.jpg
