title;date;price;city;zipcode;url;img_path
AMD Radeon RX580 8G;14.3.2021;240;Bardejov;8641;https://pc.bazos.sk/inzerat/122563214/amd-radeon-rx580-8g.php;ads/images/img_1t_214_122563214.jpg
XFX Radeon RX 580 GTS XXX Edition 8GB GDDR5 RX-580P8DFD6;14.3.2021;500;Bardejov;8641;https://pc.bazos.sk/inzerat/122563133/xfx-radeon-rx-580-gts-xxx-edition-8gb-gddr5-rx-580p8dfd6.php;ads/images/img_1t_133_122563133.jpg
Gigabyte GTX 1050 Ti 4GB;14.3.2021;120;Bardejov;8641;https://pc.bazos.sk/inzerat/122562948/gigabyte-gtx-1050-ti-4gb.php;ads/images/img_1t_948_122562948.jpg
Sapphire R9 280 Dual-X OC;14.3.2021;90;Bardejov;8641;https://pc.bazos.sk/inzerat/122562100/sapphire-r9-280-dual-x-oc.php;ads/images/img_1t_100_122562100.jpg
GTX 1070 GIGABYTE G1 GAMING 8 GB;14.3.2021;380;Bardejov;8641;https://pc.bazos.sk/inzerat/122561353/gtx-1070-gigabyte-g1-gaming-8-gb.php;ads/images/img_1t_353_122561353.jpg
RTX 2070 Gainward;14.3.2021;600;Bardejov;8641;https://pc.bazos.sk/inzerat/122560956/rtx-2070-gainward.php;ads/images/img_1t_956_122560956.jpg
Asus TUF RTX 3060 O12G Gaming 12gb 192-bit GDDR6;14.3.2021;850;Bardejov;8641;https://pc.bazos.sk/inzerat/122560787/asus-tuf-rtx-3060-o12g-gaming-12gb-192-bit-gddr6.php;ads/images/img_1t_787_122560787.jpg
Kúpim;14.3.2021;1;Bardejov;8641;https://pc.bazos.sk/inzerat/122560431/kupim.php;ads/images/img_1t_431_122560431.jpg
Asus TUF RTX 3080;14.3.2021;1;Bardejov;8641;https://pc.bazos.sk/inzerat/122559322/asus-tuf-rtx-3080.php;ads/images/img_1t_322_122559322.jpg
Alienware Graphics Aplifier 300e;14.3.2021;299;Bardejov;8641;https://pc.bazos.sk/inzerat/122558850/alienware-graphics-aplifier-300e.php;ads/images/img_1t_850_122558850.jpg
Gigabyte GV-RX460WF2 OC 2GD;14.3.2021;65;Bardejov;8641;https://pc.bazos.sk/inzerat/122558340/gigabyte-gv-rx460wf2-oc-2gd.php;ads/images/img_1t_340_122558340.jpg
Geforce 8500GT a Gigabyte 8500GT-nefunkcne;14.3.2021;Ponúknite;Bardejov;8641;https://pc.bazos.sk/inzerat/122558047/geforce-8500gt-a-gigabyte-8500gt-nefunkcne.php;ads/images/img_1t_047_122558047.jpg
